{
    "name": "Pagina",
    "alias": "pagina",
    "description": "",
    "keywords": [],
    "active": 1,
    "order": 0,
    "providers": [
        "App\\Modules\\Pagina\\Providers\\PaginaServiceProvider"
    ],
    "aliases": {},
    "files": [
        "start.php"
    ],
    "requires": []
}
